…
Observations are the level of items in orders by user. There are user /
order variables – user ID, order ID, order day, and order hour. There
are also item variables – name, aisle, department, and some numeric
codes.

How many aisles, and which are most items from?

``` r
instacart %>% 
    count(aisle) %>% 
    arrange(desc(n))
```

    ## # A tibble: 134 x 2
    ##    aisle                              n
    ##    <chr>                          <int>
    ##  1 fresh vegetables              150609
    ##  2 fresh fruits                  150473
    ##  3 packaged vegetables fruits     78493
    ##  4 yogurt                         55240
    ##  5 packaged cheese                41699
    ##  6 water seltzer sparkling water  36617
    ##  7 milk                           32644
    ##  8 chips pretzels                 31269
    ##  9 soy lactosefree                26240
    ## 10 bread                          23635
    ## # ... with 124 more rows
…
Data cleaning: Do some data cleaning. Create separate variables for
year, month, and day. Ensure observations for temperature,
precipitation, and snowfall are given in reasonable units. For snowfall,
what are the most commonly observed values? Why?

``` r
ny_noaa%>%
  janitor::clean_names()%>%
  separate(date, into = c('year','month','day')) %>%
  mutate(month = month.abb[as.factor(month)]) %>%
  mutate_at(vars(year, day, tmax, tmin), as.numeric)
```

    ## # A tibble: 2,595,176 x 9
    ##    id           year month   day  prcp  snow  snwd  tmax  tmin
    ##    <chr>       <dbl> <chr> <dbl> <int> <int> <int> <dbl> <dbl>
    ##  1 US1NYAB0001  2007 Nov       1    NA    NA    NA    NA    NA
    ##  2 US1NYAB0001  2007 Nov       2    NA    NA    NA    NA    NA
    ##  3 US1NYAB0001  2007 Nov       3    NA    NA    NA    NA    NA
    ##  4 US1NYAB0001  2007 Nov       4    NA    NA    NA    NA    NA
    ##  5 US1NYAB0001  2007 Nov       5    NA    NA    NA    NA    NA
    ##  6 US1NYAB0001  2007 Nov       6    NA    NA    NA    NA    NA
    ##  7 US1NYAB0001  2007 Nov       7    NA    NA    NA    NA    NA
    ##  8 US1NYAB0001  2007 Nov       8    NA    NA    NA    NA    NA
    ##  9 US1NYAB0001  2007 Nov       9    NA    NA    NA    NA    NA
    ## 10 US1NYAB0001  2007 Nov      10    NA    NA    NA    NA    NA
    ## # ... with 2,595,166 more rows
